\relax 
\citation{barnhart1998branch,vanderbeck2000dantzig}
\citation{barnhart1998branch}
\providecommand \oddpage@label [2]{}
\@writefile{toc}{\contentsline {subsection}{\numberline {0.1}Branch and price algorithm for OPSP}{1}}
\newlabel{S:branchPrice}{{0.1}{1}}
\citation{barnhart1998branch}
\citation{feillet2004exact}
\citation{dror1994note}
\citation{irnich2005shortest}
\citation{contardo2015reaching}
\newlabel{eq:CG_set_covering_constraints}{{2}{2}}
\newlabel{eq:CG_capacity_constraints}{{3}{2}}
\newlabel{eq:CG_variable_domain}{{4}{2}}
\@writefile{toc}{\contentsline {subsubsection}{\numberline {0.1.1}Pricing problem}{2}}
\@writefile{lof}{\contentsline {figure}{\numberline {1}{\ignorespaces A representation of a graph structure with 3 shift starting and ending times with 3 batches\relax }}{3}}
\providecommand*\caption@xref[2]{\@setref\relax\@undefined{#1}}
\newlabel{fig:col_gen_graph}{{1}{3}}
\citation{feillet2004exact}
\citation{irnich2008resource}
\citation{tilk2016dynamic}
\citation{tilk2016dynamic}
\citation{desaulniers2000shortest}
\citation{irnich2005shortest}
\citation{feillet2004exact}
\citation{kallehauge2005vehicle}
\@writefile{loa}{\contentsline {algorithm}{\numberline {1}{\ignorespaces Dynamic programming algorithm for the pricing problem\relax }}{6}}
\newlabel{DP}{{1}{6}}
\citation{desaulniers2008tabu,spliet2017time}
\@writefile{toc}{\contentsline {subsubsection}{\numberline {0.1.2}Branching}{8}}
\@writefile{toc}{\contentsline {section}{\numberline {A}Proof of Proposition 2}{8}}
\newlabel{A:ProofProposition2}{{A}{8}}
\bibstyle{myabbrvnat}
\bibdata{ref}
\bibcite{barnhart1998branch}{{1}{1998}{{Barnhart et~al.}}{{Barnhart, Johnson, Nemhauser, Savelsbergh, and Vance}}}
\bibcite{contardo2015reaching}{{2}{2015}{{Contardo et~al.}}{{Contardo, Desaulniers, and Lessard}}}
\bibcite{desaulniers2000shortest}{{3}{2000}{{Desaulniers and Villeneuve}}{{}}}
\bibcite{desaulniers2008tabu}{{4}{2008}{{Desaulniers et~al.}}{{Desaulniers, Lessard, and Hadjar}}}
\bibcite{dror1994note}{{5}{1994}{{Dror}}{{}}}
\bibcite{feillet2004exact}{{6}{2004}{{Feillet et~al.}}{{Feillet, Dejax, Gendreau, and Gueguen}}}
\bibcite{irnich2008resource}{{7}{2008}{{Irnich}}{{}}}
\bibcite{irnich2005shortest}{{8}{2005}{{Irnich and Desaulniers}}{{}}}
\bibcite{kallehauge2005vehicle}{{9}{2005}{{Kallehauge et~al.}}{{Kallehauge, Larsen, Madsen, and Solomon}}}
\bibcite{spliet2017time}{{10}{2017}{{Spliet et~al.}}{{Spliet, Dabia, and van Woensel}}}
\bibcite{tilk2016dynamic}{{11}{2016}{{Tilk and Irnich}}{{}}}
\bibcite{vanderbeck2000dantzig}{{12}{2000}{{Vanderbeck}}{{}}}
