This is BibTeX, Version 0.99dThe top-level auxiliary file: Networkflow_formulation.aux
I couldn't open style file myabbrvnat.bst
---line 40 of file Networkflow_formulation.aux
 : \bibstyle{myabbrvnat
 :                     }
I'm skipping whatever remains of this command
I found no style file---while reading file Networkflow_formulation.aux
(There were 2 error messages)
