\relax 
\providecommand \oddpage@label [2]{}
\@writefile{toc}{\contentsline {section}{\numberline {1}Network flow formulation}{1}}
\newlabel{model}{{1}{1}}
\@writefile{toc}{\contentsline {subsection}{\numberline {1.1}Problem Description}{1}}
\citation{brusco1998personnel}
\providecommand*\caption@xref[2]{\@setref\relax\@undefined{#1}}
\newlabel{fig:graph}{{\caption@xref {fig:graph}{ on input line 231}}{3}}
\@writefile{lof}{\contentsline {figure}{\numberline {1}{\ignorespaces A representation of a graph structure with 3 shift starting and ending times with 3 batches\relax }}{3}}
\@writefile{toc}{\contentsline {subsection}{\numberline {1.2}Model}{3}}
\newlabel{eq:obj}{{1}{3}}
\newlabel{eq:start_once}{{2}{3}}
\newlabel{eq:end_once}{{3}{4}}
\newlabel{eq:one_task_begin_once}{{4}{4}}
\newlabel{eq:one_task_end_once}{{5}{4}}
\newlabel{eq:flow_conservation}{{6}{4}}
\newlabel{eq:completion_times}{{7}{4}}
\newlabel{eq:earlines}{{8}{4}}
\newlabel{eq:tardiness}{{9}{4}}
\newlabel{eq:break_time_startnodes}{{10}{4}}
\newlabel{eq:break_time_batches}{{11}{4}}
\newlabel{eq:break_reset}{{12}{4}}
\newlabel{eq:break_requirement}{{13}{4}}
\newlabel{eq:work_break_linkage}{{14}{4}}
\newlabel{eq:order_picker_time_limits_min}{{15}{4}}
\newlabel{eq:order_picker_time_limits_max}{{16}{4}}
\newlabel{eq:maximum_worker_limit}{{17}{4}}
\newlabel{eq:restrict_arcs}{{18}{4}}
\newlabel{eq:completion_time_geq0}{{19}{4}}
\newlabel{eq:varx}{{20}{4}}
\newlabel{eq:vary}{{21}{4}}
\newlabel{eq:varm}{{22}{4}}
\citation{sherali2001improving,jans2009solving}
\@writefile{toc}{\contentsline {subsection}{\numberline {1.3}Tightening Model Formulation}{5}}
\newlabel{eq: symmetry_breaking}{{23}{5}}
\newlabel{eq:vin3}{{24}{5}}
\newlabel{eq:vin4}{{25}{5}}
\newlabel{eq:vin5}{{26}{6}}
\newlabel{Prop2}{{1.3}{6}}
\bibstyle{myabbrvnat}
\bibdata{ref}
