\relax 
\providecommand \oddpage@label [2]{}
\@writefile{toc}{\contentsline {section}{\numberline {1}Column generation formulation}{1}}
\newlabel{model}{{1}{1}}
\@writefile{toc}{\contentsline {subsection}{\numberline {1.1}Master problem}{1}}
\newlabel{eq:set_covering_constraints}{{2}{1}}
\newlabel{eq:capacity_constraints}{{3}{1}}
\newlabel{eq:variable_domain}{{4}{1}}
\@writefile{toc}{\contentsline {subsection}{\numberline {1.2}Pricing problem}{1}}
\@writefile{lof}{\contentsline {figure}{\numberline {1}{\ignorespaces A representation of a graph structure with 3 shift starting and ending times with 3 batches\relax }}{2}}
\providecommand*\caption@xref[2]{\@setref\relax\@undefined{#1}}
\newlabel{fig:graph}{{1}{2}}
\@writefile{loa}{\contentsline {algorithm}{\numberline {1}{\ignorespaces Dynamic programming algorithm for the pricing problem\relax }}{5}}
\newlabel{DP}{{1}{5}}
